An Introduction to Generalized Linear Models (4th edition) - A Hugo website
…
Chapter4 Estimation

#table 4.1 
data(failure)
failure

## # A tibble: 49 × 1
##    lifetimes
##        <dbl>
##  1      1051
##  2      1337
##  3      1389
##  4      1921
##  5      1942
##  6      2322
##  7      3629
##  8      4006
##  9      4012
## 10      4063
## 11      4921
## 12      5445
## 13      5620
## 14      5817
## 15      5905
## 16      5956
## 17      6068
## 18      6121
## 19      6473
## 20      7501
## 21      7886
## 22      8108
## 23      8546
## 24      8666
## 25      8831
## # ℹ 24 more rows
…
cvfit = cv.glmnet(x, y, grouped=FALSE)
coef(cvfit, s = "lambda.1se")

## 4 x 1 sparse Matrix of class "dgCMatrix"
##                       s1
## (Intercept) 33.889042731
## age         -0.004292978
## weight      -0.148035052
## protein      1.276513112

plant.dried

## # A tibble: 30 × 2
##    group      weight
##    <chr>       <dbl>
##  1 Control      4.17
##  2 Control      5.58
##  3 Control      5.18
##  4 Control      6.11
##  5 Control      4.5 
##  6 Control      4.61
##  7 Control      5.17
##  8 Control      4.53
##  9 Control      5.33
## 10 Control      5.14
## 11 TreatmentA   4.81
## 12 TreatmentA   4.17
## 13 TreatmentA   4.41
## 14 TreatmentA   3.59
## 15 TreatmentA   5.87
## 16 TreatmentA   3.83
## 17 TreatmentA   6.03
## 18 TreatmentA   4.89
## 19 TreatmentA   4.32
## 20 TreatmentA   4.69
## 21 TreatmentB   6.31
## 22 TreatmentB   5.12
## 23 TreatmentB   5.54
## 24 TreatmentB   5.5 
## 25 TreatmentB   5.37
## # ℹ 5 more rows
…
#Table 6.23
pasture

## # A tibble: 27 × 2
##        K yield
##    <dbl> <dbl>
##  1     0 1754.
##  2    40 4923.
##  3    50 5246.
##  4     5 3185.
##  5    10 3538.
##  6    30 4000 
##  7    15 4185.
##  8    40 4692.
##  9    20 3600 
## 10    15 3108.
## 11    30 4415.
## 12    50 4938.
## 13     5 3046.
## 14     0 2554.
## 15    10 3323.
## 16    40 4462.
## 17    20 4215.
## 18    40 4154.
## 19    10 2400 
## 20     5 2862.
## 21    40 3723 
## 22    30 4892.
## 23    40 4785.
## 24    20 3185.
## 25     0 2723.
## # ℹ 2 more rows
…
#EXERCISES6.4
cholesterol

## # A tibble: 30 × 3
##     chol   age   bmi
##    <dbl> <dbl> <dbl>
##  1  5.94    52  20.7
##  2  4.71    46  21.3
##  3  5.86    51  25.4
##  4  6.52    44  22.7
##  5  6.8     70  23.9
##  6  5.23    33  24.3
##  7  4.97    21  22.2
##  8  8.78    63  26.2
##  9  5.13    56  23.3
## 10  6.74    54  29.2
## 11  5.95    44  22.7
## 12  5.83    71  21.9
## 13  5.74    39  22.4
## 14  4.92    58  20.2
## 15  6.69    58  24.4
## 16  6.48    65  26.3
## 17  8.83    76  22.7
## 18  5.1     47  21.5
## 19  5.81    43  20.7
## 20  4.65    30  18.9
## 21  6.82    58  23.9
## 22  6.28    78  24.3
## 23  5.15    49  23.8
## 24  2.92    36  19.6
## 25  9.27    67  24.3
## # ℹ 5 more rows
…
## Analysis of Variance Table
## 
## Model 1: chol ~ age + bmi
## Model 2: chol ~ age
##   Res.Df    RSS Df Sum of Sq      F  Pr(>F)  
## 1     27 26.571                              
## 2     28 31.636 -1   -5.0655 5.1474 0.03149 *
## ---
## Signif. codes:  0 '***' 0.001 '**' 0.01 '*' 0.05 '.' 0.1 ' ' 1

#EXERCISES6.5
plasma

## # A tibble: 31 × 2
##    Group phosphate
##    <chr>     <dbl>
##  1 H-O         2.3
##  2 H-O         4.1
##  3 H-O         4.2
##  4 H-O         4  
##  5 H-O         4.6
##  6 H-O         4.6
##  7 H-O         3.8
##  8 H-O         5.2
##  9 H-O         3.1
## 10 H-O         3.7
## 11 H-O         3.8
## 12 N-O         3  
## 13 N-O         4.1
## 14 N-O         3.9
## 15 N-O         3.1
## 16 N-O         3.3
## 17 N-O         2.9
## 18 N-O         3.3
## 19 N-O         3.9
## 20 C           3  
## 21 C           2.6
## 22 C           3.1
## 23 C           2.2
## 24 C           2.1
## 25 C           2.4
## # ℹ 6 more rows
…
fit_p3=c(fitted.values(res.glm3))
fit_y3=n*fit_p3
fit_y3

##        1        2        3        4        5        6        7        8 
##  5.58945 11.28068 20.95422 30.36944 47.77642 54.14273 61.11331 59.94723

senility

## # A tibble: 54 × 2
##        x     s
##    <dbl> <dbl>
##  1     9     1
##  2    13     1
##  3     6     1
##  4     8     1
##  5    10     1
##  6     4     1
##  7    14     1
##  8     8     1
##  9    11     1
## 10     7     1
## 11     9     1
## 12     7     1
## 13     5     1
## 14    14     1
## 15    13     0
## 16    16     0
## 17    10     0
## 18    12     0
## 19    11     0
## 20    14     0
## 21    15     0
## 22    18     0
## 23     7     0
## 24    16     0
## 25     9     0
## # ℹ 29 more rows
…
## [1] 2.618837

res.glm3$null.deviance

## [1] 10.45197

res.glm3$deviance

## [1] 8.091578

#model3 shared Intercept and slope
data(senility)
senility

## # A tibble: 54 × 2
##        x     s
##    <dbl> <dbl>
##  1     9     1
##  2    13     1
##  3     6     1
##  4     8     1
##  5    10     1
##  6     4     1
##  7    14     1
##  8     8     1
##  9    11     1
## 10     7     1
## 11     9     1
## 12     7     1
## 13     5     1
## 14    14     1
## 15    13     0
## 16    16     0
## 17    10     0
## 18    12     0
## 19    11     0
## 20    14     0
## 21    15     0
## 22    18     0
## 23     7     0
## 24    16     0
## 25     9     0
## # ℹ 29 more rows
…
## [1] 0.3243007

1-pchisq(X_HL, df=1)

## [1] 0.5690345

#Exercises 7.3
graduates

## # A tibble: 60 × 5
##     year survive total faculty  sex  
##    <dbl> <chr>   <chr> <chr>    <chr>
##  1  1938 18      22    medicine men  
##  2  1939 16      23    medicine men  
##  3  1940 7       17    medicine men  
##  4  1941 12      25    medicine men  
##  5  1942 24      50    medicine men  
##  6  1943 16      21    medicine men  
##  7  1944 22      32    medicine men  
##  8  1945 12      14    medicine men  
##  9  1946 22      34    medicine men  
## 10  1947 28      37    medicine men  
## 11  1938 16      30    arts     men  
## 12  1939 13      22    arts     men  
## 13  1940 11      25    arts     men  
## 14  1941 12      14    arts     men  
## 15  1942 8       12    arts     men  
## 16  1943 11      20    arts     men  
## 17  1944 4       10    arts     men  
## 18  1945 4       12    arts     men  
## 19  1946 *       *     arts     men  
## 20  1947 13      23    arts     men  
## 21  1938 9       14    science  men  
## 22  1939 9       12    science  men  
## 23  1940 12      19    science  men  
## 24  1941 12      15    science  men  
## 25  1942 20      28    science  men  
## # ℹ 35 more rows

graduates$survive = as.numeric(graduates$survive)
graduates$total = as.numeric(graduates$total)
graduates

## # A tibble: 60 × 5
##     year survive total faculty  sex  
##    <dbl>   <dbl> <dbl> <chr>    <chr>
##  1  1938      18    22 medicine men  
##  2  1939      16    23 medicine men  
##  3  1940       7    17 medicine men  
##  4  1941      12    25 medicine men  
##  5  1942      24    50 medicine men  
##  6  1943      16    21 medicine men  
##  7  1944      22    32 medicine men  
##  8  1945      12    14 medicine men  
##  9  1946      22    34 medicine men  
## 10  1947      28    37 medicine men  
## 11  1938      16    30 arts     men  
## 12  1939      13    22 arts     men  
## 13  1940      11    25 arts     men  
## 14  1941      12    14 arts     men  
## 15  1942       8    12 arts     men  
## 16  1943      11    20 arts     men  
## 17  1944       4    10 arts     men  
## 18  1945       4    12 arts     men  
## 19  1946      NA    NA arts     men  
## 20  1947      13    23 arts     men  
## 21  1938       9    14 science  men  
## 22  1939       9    12 science  men  
## 23  1940      12    19 science  men  
## 24  1941      12    15 science  men  
## 25  1942      20    28 science  men  
## # ℹ 35 more rows
…
## [1] 6.282983

Exercises 9.1

The joint probability distribution:
\[f(\mathbf y;\boldsymbol\mu)=\prod_{i=1}^{N}\mu_i^{y_i}e^{-\mu_i}/y_i!\]

\[l(\mathbf y;\boldsymbol\mu)=\sum_{i=1}^{N}(y_i\log(\mu_i)-\mu_i-\log(y_i!))=\sum_{i=1}^{N}\left(y_i\left(\beta_1+\sum_{j=2}^{J}x_{ij}\beta_j\right)-\exp\left(\beta_1+\sum_{j=2}^{J}x_{ij}\beta_j\right)-\log(y_i!)\right)\]
The score statistic for \(\beta_1\) is
\[\frac{\partial l(\mathbf y;\boldsymbol\mu)}{\partial \beta_1}=\sum_{i=1}^{N}\left(y_i-\mu_i\right)\]

#Exercises 9.2
insurance

## # A tibble: 32 × 5
##      car   age district     y     n
##    <dbl> <dbl>    <dbl> <dbl> <dbl>
##  1     1     1        0    65   317
##  2     1     2        0    65   476
##  3     1     3        0    52   486
##  4     1     4        0   310  3259
##  5     2     1        0    98   486
##  6     2     2        0   159  1004
##  7     2     3        0   175  1355
##  8     2     4        0   877  7660
##  9     3     1        0    41   223
## 10     3     2        0   117   539
## 11     3     3        0   137   697
## 12     3     4        0   477  3442
## 13     4     1        0    11    40
## 14     4     2        0    35   148
## 15     4     3        0    39   214
## 16     4     4        0   167  1019
## 17     1     1        1     2    20
## 18     1     2        1     5    33
## 19     1     3        1     4    40
## 20     1     4        1    36   316
## 21     2     1        1     7    31
## 22     2     2        1    10    81
## 23     2     3        1    22   122
## 24     2     4        1   102   724
## 25     3     1        1     5    18
## # ℹ 7 more rows

insurance$car2 <- factor(insurance$car)
insurance$age2 <- factor(insurance$age)
insurance$district2 <- factor(insurance$district)

insurance |> group_by(c(car2)) |> mutate(rate=sum(y)/sum(n))

## # A tibble: 32 × 10
## # Groups:   c(car2) [4]
##      car   age district     y     n car2  age2  district2 `c(car2)`  rate
##    <dbl> <dbl>    <dbl> <dbl> <dbl> <fct> <fct> <fct>     <fct>     <dbl>
##  1     1     1        0    65   317 1     1     0         1         0.109
##  2     1     2        0    65   476 1     2     0         1         0.109
##  3     1     3        0    52   486 1     3     0         1         0.109
##  4     1     4        0   310  3259 1     4     0         1         0.109
##  5     2     1        0    98   486 2     1     0         2         0.126
##  6     2     2        0   159  1004 2     2     0         2         0.126
##  7     2     3        0   175  1355 2     3     0         2         0.126
##  8     2     4        0   877  7660 2     4     0         2         0.126
##  9     3     1        0    41   223 3     1     0         3         0.161
## 10     3     2        0   117   539 3     2     0         3         0.161
## 11     3     3        0   137   697 3     3     0         3         0.161
## 12     3     4        0   477  3442 3     4     0         3         0.161
## 13     4     1        0    11    40 4     1     0         4         0.189
## 14     4     2        0    35   148 4     2     0         4         0.189
## 15     4     3        0    39   214 4     3     0         4         0.189
## 16     4     4        0   167  1019 4     4     0         4         0.189
## 17     1     1        1     2    20 1     1     1         1         0.109
## 18     1     2        1     5    33 1     2     1         1         0.109
## 19     1     3        1     4    40 1     3     1         1         0.109
## 20     1     4        1    36   316 1     4     1         1         0.109
## 21     2     1        1     7    31 2     1     1         2         0.126
## 22     2     2        1    10    81 2     2     1         2         0.126
## 23     2     3        1    22   122 2     3     1         2         0.126
## 24     2     4        1   102   724 2     4     1         2         0.126
## 25     3     1        1     5    18 3     1     1         3         0.161
## # ℹ 7 more rows
…
## responsemoderate 
##        0.3561644

#large
1/total

## [1] 0.2191781

Chapter10 Survival Analysis

#Table10.1
remission

## # A tibble: 42 × 3
##     time group censored
##    <dbl> <chr>    <dbl>
##  1     1 C            0
##  2     1 C            0
##  3     2 C            0
##  4     2 C            0
##  5     3 C            0
##  6     4 C            0
##  7     4 C            0
##  8     5 C            0
##  9     5 C            0
## 10     8 C            0
## 11     8 C            0
## 12     8 C            0
## 13     8 C            0
## 14    11 C            0
## 15    11 C            0
## 16    12 C            0
## 17    12 C            0
## 18    15 C            0
## 19    17 C            0
## 20    22 C            0
## 21    23 C            0
## 22     6 T            0
## 23     6 T            0
## 24     6 T            0
## 25     6 T            1
## # ℹ 17 more rows
…
remission

## # A tibble: 42 × 3
##     time group censored
##    <dbl> <chr>    <dbl>
##  1     1 C            0
##  2     1 C            0
##  3     2 C            0
##  4     2 C            0
##  5     3 C            0
##  6     4 C            0
##  7     4 C            0
##  8     5 C            0
##  9     5 C            0
## 10     8 C            0
## 11     8 C            0
## 12     8 C            0
## 13     8 C            0
## 14    11 C            0
## 15    11 C            0
## 16    12 C            0
## 17    12 C            0
## 18    15 C            0
## 19    17 C            0
## 20    22 C            0
## 21    23 C            0
## 22     6 T            0
## 23     6 T            0
## 24     6 T            0
## 25     6 T            1
## # ℹ 17 more rows
…
library(tidyverse)
stroke.wide |> pivot_longer(
    cols = starts_with("week"), 
    names_to = "week", 
    values_to = "score",
    values_drop_na = TRUE
  ) |> 
  mutate(
    week = readr::parse_number(week)
  )

## # A tibble: 192 × 4
##    Subject Group  week score
##      <dbl> <chr> <dbl> <dbl>
##  1       1 A         1    45
##  2       1 A         2    45
##  3       1 A         3    45
##  4       1 A         4    45
##  5       1 A         5    80
##  6       1 A         6    80
##  7       1 A         7    80
##  8       1 A         8    90
##  9       2 A         1    20
## 10       2 A         2    25
## 11       2 A         3    25
## 12       2 A         4    25
## 13       2 A         5    30
## 14       2 A         6    35
## 15       2 A         7    30
## 16       2 A         8    50
## 17       3 A         1    50
## 18       3 A         2    50
## 19       3 A         3    55
## 20       3 A         4    70
## 21       3 A         5    70
## 22       3 A         6    75
## 23       3 A         7    90
## 24       3 A         8    90
## 25       4 A         1    25
## # ℹ 167 more rows

stroke.long <- stroke.wide |> pivot_longer(
    cols = starts_with("week"), 
    names_to = "week", 
    values_to = "score",
    values_drop_na = TRUE
  ) |> 
  mutate(
    week = readr::parse_number(week)
  )
stroke.long

## # A tibble: 192 × 4
##    Subject Group  week score
##      <dbl> <chr> <dbl> <dbl>
##  1       1 A         1    45
##  2       1 A         2    45
##  3       1 A         3    45
##  4       1 A         4    45
##  5       1 A         5    80
##  6       1 A         6    80
##  7       1 A         7    80
##  8       1 A         8    90
##  9       2 A         1    20
## 10       2 A         2    25
## 11       2 A         3    25
## 12       2 A         4    25
## 13       2 A         5    30
## 14       2 A         6    35
## 15       2 A         7    30
## 16       2 A         8    50
## 17       3 A         1    50
## 18       3 A         2    50
## 19       3 A         3    55
## 20       3 A         4    70
## 21       3 A         5    70
## 22       3 A         6    75
## 23       3 A         7    90
## 24       3 A         8    90
## 25       4 A         1    25
## # ℹ 167 more rows
…
stroke.long <- stroke.wide |> pivot_longer(
    cols = starts_with("week"), 
    names_to = "week", 
    values_to = "score",
    values_drop_na = TRUE
  ) |> 
  mutate(
    week = readr::parse_number(week),
    Group = factor(Group)
  )
colnames(stroke.long) <- c("Subject","Group","time","ability")
stroke.long

## # A tibble: 192 × 4
##    Subject Group  time ability
##      <dbl> <fct> <dbl>   <dbl>
##  1       1 A         1      45
##  2       1 A         2      45
##  3       1 A         3      45
##  4       1 A         4      45
##  5       1 A         5      80
##  6       1 A         6      80
##  7       1 A         7      80
##  8       1 A         8      90
##  9       2 A         1      20
## 10       2 A         2      25
## 11       2 A         3      25
## 12       2 A         4      25
## 13       2 A         5      30
## 14       2 A         6      35
## 15       2 A         7      30
## 16       2 A         8      50
## 17       3 A         1      50
## 18       3 A         2      50
## 19       3 A         3      55
## 20       3 A         4      70
## 21       3 A         5      70
## 22       3 A         6      75
## 23       3 A         7      90
## 24       3 A         8      90
## 25       4 A         1      25
## # ℹ 167 more rows
…
AIC(gls.ind,gls.exch,gls.ar1,gls.un)

##          df  AIC
## gls.ind   8 1320
## gls.exch  8 1453
## gls.ar1   8 1320
## gls.un   35 1338

#Exercises 11.1
#Table11.9
dogs

## # A tibble: 40 × 4
##      dog condition     y     x
##    <dbl>     <dbl> <dbl> <dbl>
##  1     1         1  81.7  54.3
##  2     1         2  84.3  62  
##  3     1         3  72.8  62.3
##  4     1         4  71.7  47.3
##  5     1         5  76.7  53.6
##  6     1         6  75.8  38  
##  7     1         7  77.3  54.2
##  8     1         8  86.3  54  
##  9     2         1 105    81.5
## 10     2         2 114.   80.8
## 11     2         3 109.   74.5
## 12     2         4  83.9  71.9
## 13     2         5  89    79.5
## 14     2         6  86.1  73  
## 15     2         7  88.7  74.7
## 16     2         8 118.   88.6
## 17     3         1  95.5  65  
## 18     3         2  95.7  68.3
## 19     3         3  84    67.9
## 20     3         4  85.8  61  
## 21     3         5  98.8  66  
## 22     3         6 106.   81.8
## 23     3         7 106.   71.4
## 24     3         8 115    96  
## 25     4         1 113.   87.5
## # ℹ 15 more rows
…
