Modern Statistics for Modern Biology-1 - A Hugo website
…
## -----------------------------------------------------------------------------
lambdas = seq(100, 900, by = 100)
simdat = lapply(lambdas, function(l)
    tibble(y = rpois(n = 40, lambda=l), lambda = l)
  ) %>% bind_rows
simdat

## # A tibble: 360 × 2
##        y lambda
##    <int>  <dbl>
##  1   105    100
##  2   102    100
##  3    97    100
##  4    94    100
##  5   100    100
##  6   100    100
##  7   102    100
##  8    97    100
##  9    90    100
## 10   107    100
## # ℹ 350 more rows
…
